[
 {
  "_user_tags": ",csf-tz",
  "allow_on_submit": 1,
  "bold": 0,
  "collapsible": 0,
  "collapsible_depends_on": null,
  "columns": 0,
  "default": null,
  "depends_on": null,
  "description": null,
  "docstatus": 0,
  "doctype": "Custom Field",
  "dt": "Payment Entry",
  "fetch_from": null,
  "fetch_if_empty": 0,
  "fieldname": "workflow_state",
  "fieldtype": "Link",
  "hidden": 1,
  "ignore_user_permissions": 0,
  "ignore_xss_filter": 0,
  "in_global_search": 0,
  "in_list_view": 0,
  "in_standard_filter": 0,
  "insert_after": null,
  "label": "Workflow State",
  "length": 0,
  "modified": "2019-12-06 10:11:22.152234",
  "name": "Payment Entry-workflow_state",
  "no_copy": 1,
  "options": "Workflow State",
  "parent": null,
  "parentfield": null,
  "parenttype": null,
  "permlevel": 0,
  "precision": "",
  "print_hide": 0,
  "print_hide_if_no_value": 0,
  "print_width": null,
  "read_only": 0,
  "report_hide": 0,
  "reqd": 0,
  "search_index": 0,
  "translatable": 0,
  "unique": 0,
  "width": null
 },
 {
  "_user_tags": ",csf-tz",
  "allow_on_submit": 0,
  "bold": 1,
  "collapsible": 0,
  "collapsible_depends_on": null,
  "columns": 0,
  "default": null,
  "depends_on": null,
  "description": null,
  "docstatus": 0,
  "doctype": "Custom Field",
  "dt": "Supplier",
  "fetch_from": null,
  "fetch_if_empty": 0,
  "fieldname": "vrn",
  "fieldtype": "Data",
  "hidden": 0,
  "ignore_user_permissions": 0,
  "ignore_xss_filter": 0,
  "in_global_search": 0,
  "in_list_view": 0,
  "in_standard_filter": 0,
  "insert_after": "tax_id",
  "label": "VRN",
  "length": 0,
  "modified": "2019-12-06 08:46:28.853263",
  "name": "Supplier-vrn",
  "no_copy": 0,
  "options": null,
  "parent": null,
  "parentfield": null,
  "parenttype": null,
  "permlevel": 0,
  "precision": "",
  "print_hide": 0,
  "print_hide_if_no_value": 0,
  "print_width": null,
  "read_only": 0,
  "report_hide": 0,
  "reqd": 0,
  "search_index": 0,
  "translatable": 1,
  "unique": 0,
  "width": null
 },
 {
  "_user_tags": ",csf-tz",
  "allow_on_submit": 0,
  "bold": 0,
  "collapsible": 0,
  "collapsible_depends_on": null,
  "columns": 0,
  "default": null,
  "depends_on": null,
  "description": null,
  "docstatus": 0,
  "doctype": "Custom Field",
  "dt": "Payment Entry Reference",
  "fetch_from": null,
  "fetch_if_empty": 0,
  "fieldname": "section_break_9",
  "fieldtype": "Section Break",
  "hidden": 0,
  "ignore_user_permissions": 0,
  "ignore_xss_filter": 0,
  "in_global_search": 0,
  "in_list_view": 0,
  "in_standard_filter": 0,
  "insert_after": "exchange_rate",
  "label": null,
  "length": 0,
  "modified": "2019-12-06 10:13:12.881519",
  "name": "Payment Entry Reference-section_break_9",
  "no_copy": 0,
  "options": null,
  "parent": null,
  "parentfield": null,
  "parenttype": null,
  "permlevel": 0,
  "precision": "",
  "print_hide": 0,
  "print_hide_if_no_value": 0,
  "print_width": null,
  "read_only": 0,
  "report_hide": 0,
  "reqd": 0,
  "search_index": 0,
  "translatable": 0,
  "unique": 0,
  "width": null
 },
 {
  "_user_tags": ",csf-tz",
  "allow_on_submit": 0,
  "bold": 0,
  "collapsible": 0,
  "collapsible_depends_on": null,
  "columns": 1,
  "default": null,
  "depends_on": null,
  "description": null,
  "docstatus": 0,
  "doctype": "Custom Field",
  "dt": "Payment Entry Reference",
  "fetch_from": "reference_name.posting_date",
  "fetch_if_empty": 0,
  "fieldname": "posting_date",
  "fieldtype": "Date",
  "hidden": 0,
  "ignore_user_permissions": 0,
  "ignore_xss_filter": 0,
  "in_global_search": 0,
  "in_list_view": 1,
  "in_standard_filter": 0,
  "insert_after": "section_break_9",
  "label": "Posting Date",
  "length": 0,
  "modified": "2019-12-06 10:13:37.528908",
  "name": "Payment Entry Reference-posting_date",
  "no_copy": 0,
  "options": null,
  "parent": null,
  "parentfield": null,
  "parenttype": null,
  "permlevel": 0,
  "precision": "",
  "print_hide": 0,
  "print_hide_if_no_value": 0,
  "print_width": null,
  "read_only": 0,
  "report_hide": 0,
  "reqd": 0,
  "search_index": 0,
  "translatable": 0,
  "unique": 0,
  "width": null
 },
 {
  "_user_tags": ",csf-tz",
  "allow_on_submit": 0,
  "bold": 0,
  "collapsible": 0,
  "collapsible_depends_on": null,
  "columns": 0,
  "default": null,
  "depends_on": null,
  "description": null,
  "docstatus": 0,
  "doctype": "Custom Field",
  "dt": "Payment Entry Reference",
  "fetch_from": "reference_name.from_date",
  "fetch_if_empty": 0,
  "fieldname": "start_date",
  "fieldtype": "Date",
  "hidden": 0,
  "ignore_user_permissions": 0,
  "ignore_xss_filter": 0,
  "in_global_search": 0,
  "in_list_view": 0,
  "in_standard_filter": 0,
  "insert_after": "posting_date",
  "label": "Start Date",
  "length": 0,
  "modified": "2019-12-06 10:25:14.620339",
  "name": "Payment Entry Reference-start_date",
  "no_copy": 0,
  "options": null,
  "parent": null,
  "parentfield": null,
  "parenttype": null,
  "permlevel": 0,
  "precision": "",
  "print_hide": 0,
  "print_hide_if_no_value": 0,
  "print_width": null,
  "read_only": 0,
  "report_hide": 0,
  "reqd": 0,
  "search_index": 0,
  "translatable": 0,
  "unique": 0,
  "width": null
 },
 {
  "_user_tags": ",csf-tz",
  "allow_on_submit": 0,
  "bold": 0,
  "collapsible": 0,
  "collapsible_depends_on": null,
  "columns": 0,
  "default": null,
  "depends_on": null,
  "description": null,
  "docstatus": 0,
  "doctype": "Custom Field",
  "dt": "Payment Entry Reference",
  "fetch_from": "reference_name.to_date",
  "fetch_if_empty": 0,
  "fieldname": "end_date",
  "fieldtype": "Date",
  "hidden": 0,
  "ignore_user_permissions": 0,
  "ignore_xss_filter": 0,
  "in_global_search": 0,
  "in_list_view": 0,
  "in_standard_filter": 0,
  "insert_after": "start_date",
  "label": "End Date",
  "length": 0,
  "modified": "2019-12-06 10:24:22.715966",
  "name": "Payment Entry Reference-end_date",
  "no_copy": 0,
  "options": null,
  "parent": null,
  "parentfield": null,
  "parenttype": null,
  "permlevel": 0,
  "precision": "",
  "print_hide": 0,
  "print_hide_if_no_value": 0,
  "print_width": null,
  "read_only": 0,
  "report_hide": 0,
  "reqd": 0,
  "search_index": 0,
  "translatable": 0,
  "unique": 0,
  "width": null
 },
 {
  "_user_tags": ",csf-tz",
  "allow_on_submit": 0,
  "bold": 0,
  "collapsible": 0,
  "collapsible_depends_on": null,
  "columns": 0,
  "default": null,
  "depends_on": null,
  "description": null,
  "docstatus": 0,
  "doctype": "Custom Field",
  "dt": "Quotation",
  "fetch_from": null,
  "fetch_if_empty": 0,
  "fieldname": "cost_center",
  "fieldtype": "Link",
  "hidden": 0,
  "ignore_user_permissions": 0,
  "ignore_xss_filter": 0,
  "in_global_search": 0,
  "in_list_view": 0,
  "in_standard_filter": 0,
  "insert_after": "order_type",
  "label": "Cost Center",
  "length": 0,
  "modified": "2019-12-06 08:44:24.475522",
  "name": "Quotation-cost_center",
  "no_copy": 0,
  "options": "Cost Center",
  "parent": null,
  "parentfield": null,
  "parenttype": null,
  "permlevel": 0,
  "precision": "",
  "print_hide": 0,
  "print_hide_if_no_value": 0,
  "print_width": null,
  "read_only": 0,
  "report_hide": 0,
  "reqd": 0,
  "search_index": 0,
  "translatable": 0,
  "unique": 0,
  "width": null
 },
 {
  "_user_tags": ",csf-tz",
  "allow_on_submit": 0,
  "bold": 0,
  "collapsible": 0,
  "collapsible_depends_on": null,
  "columns": 0,
  "default": null,
  "depends_on": null,
  "description": null,
  "docstatus": 0,
  "doctype": "Custom Field",
  "dt": "Sales Order",
  "fetch_from": null,
  "fetch_if_empty": 0,
  "fieldname": "cost_center",
  "fieldtype": "Link",
  "hidden": 0,
  "ignore_user_permissions": 0,
  "ignore_xss_filter": 0,
  "in_global_search": 0,
  "in_list_view": 0,
  "in_standard_filter": 0,
  "insert_after": "delivery_date",
  "label": "Cost Center",
  "length": 0,
  "modified": "2019-12-06 15:15:22.119804",
  "name": "Sales Order-cost_center",
  "no_copy": 0,
  "options": "Cost Center",
  "parent": null,
  "parentfield": null,
  "parenttype": null,
  "permlevel": 0,
  "precision": "",
  "print_hide": 0,
  "print_hide_if_no_value": 0,
  "print_width": null,
  "read_only": 0,
  "report_hide": 0,
  "reqd": 0,
  "search_index": 0,
  "translatable": 0,
  "unique": 0,
  "width": null
 },
 {
  "_user_tags": ",csf-tz",
  "allow_on_submit": 0,
  "bold": 1,
  "collapsible": 0,
  "collapsible_depends_on": null,
  "columns": 0,
  "default": null,
  "depends_on": null,
  "description": "Value Added Tax Registration Number (VAT RN = VRN)",
  "docstatus": 0,
  "doctype": "Custom Field",
  "dt": "Customer",
  "fetch_from": null,
  "fetch_if_empty": 0,
  "fieldname": "vrn",
  "fieldtype": "Data",
  "hidden": 0,
  "ignore_user_permissions": 0,
  "ignore_xss_filter": 0,
  "in_global_search": 0,
  "in_list_view": 0,
  "in_standard_filter": 0,
  "insert_after": "tax_id",
  "label": "VRN",
  "length": 0,
  "modified": "2019-12-06 08:45:48.556946",
  "name": "Customer-vrn",
  "no_copy": 0,
  "options": null,
  "parent": null,
  "parentfield": null,
  "parenttype": null,
  "permlevel": 0,
  "precision": "",
  "print_hide": 0,
  "print_hide_if_no_value": 0,
  "print_width": null,
  "read_only": 0,
  "report_hide": 0,
  "reqd": 0,
  "search_index": 0,
  "translatable": 1,
  "unique": 0,
  "width": null
 },
 {
  "_user_tags": ",csf-tz",
  "allow_on_submit": 0,
  "bold": 0,
  "collapsible": 0,
  "collapsible_depends_on": null,
  "columns": 0,
  "default": null,
  "depends_on": null,
  "description": null,
  "docstatus": 0,
  "doctype": "Custom Field",
  "dt": "Sales Invoice",
  "fetch_from": null,
  "fetch_if_empty": 0,
  "fieldname": "statutory_details",
  "fieldtype": "Section Break",
  "hidden": 0,
  "ignore_user_permissions": 0,
  "ignore_xss_filter": 0,
  "in_global_search": 0,
  "in_list_view": 0,
  "in_standard_filter": 0,
  "insert_after": "po_date",
  "label": "Statutory Details",
  "length": 0,
  "modified": "2019-12-06 14:57:39.954884",
  "name": "Sales Invoice-statutory_details",
  "no_copy": 0,
  "options": null,
  "parent": null,
  "parentfield": null,
  "parenttype": null,
  "permlevel": 0,
  "precision": "",
  "print_hide": 0,
  "print_hide_if_no_value": 0,
  "print_width": null,
  "read_only": 0,
  "report_hide": 0,
  "reqd": 0,
  "search_index": 0,
  "translatable": 0,
  "unique": 0,
  "width": null
 },
 {
  "_user_tags": ",csf-tz",
  "allow_on_submit": 1,
  "bold": 0,
  "collapsible": 0,
  "collapsible_depends_on": null,
  "columns": 0,
  "default": null,
  "depends_on": null,
  "description": null,
  "docstatus": 0,
  "doctype": "Custom Field",
  "dt": "Sales Invoice",
  "fetch_from": null,
  "fetch_if_empty": 0,
  "fieldname": "tra_control_number",
  "fieldtype": "Data",
  "hidden": 0,
  "ignore_user_permissions": 0,
  "ignore_xss_filter": 0,
  "in_global_search": 0,
  "in_list_view": 0,
  "in_standard_filter": 0,
  "insert_after": "statutory_details",
  "label": "TRA Control Number",
  "length": 0,
  "modified": "2019-12-06 14:57:21.687372",
  "name": "Sales Invoice-tra_control_number",
  "no_copy": 0,
  "options": null,
  "parent": null,
  "parentfield": null,
  "parenttype": null,
  "permlevel": 0,
  "precision": "",
  "print_hide": 0,
  "print_hide_if_no_value": 0,
  "print_width": null,
  "read_only": 0,
  "report_hide": 0,
  "reqd": 0,
  "search_index": 0,
  "translatable": 1,
  "unique": 0,
  "width": null
 },
 {
  "_user_tags": ",csf-tz",
  "allow_on_submit": 1,
  "bold": 0,
  "collapsible": 0,
  "collapsible_depends_on": null,
  "columns": 0,
  "default": null,
  "depends_on": null,
  "description": null,
  "docstatus": 0,
  "doctype": "Custom Field",
  "dt": "Sales Invoice",
  "fetch_from": null,
  "fetch_if_empty": 0,
  "fieldname": "witholding_tax_certificate_number",
  "fieldtype": "Data",
  "hidden": 0,
  "ignore_user_permissions": 0,
  "ignore_xss_filter": 0,
  "in_global_search": 0,
  "in_list_view": 0,
  "in_standard_filter": 0,
  "insert_after": "tra_control_number",
  "label": "Witholding Tax Certificate Number",
  "length": 0,
  "modified": "2019-12-06 14:55:29.896066",
  "name": "Sales Invoice-witholding_tax_certificate_number",
  "no_copy": 0,
  "options": null,
  "parent": null,
  "parentfield": null,
  "parenttype": null,
  "permlevel": 0,
  "precision": "",
  "print_hide": 0,
  "print_hide_if_no_value": 0,
  "print_width": null,
  "read_only": 0,
  "report_hide": 0,
  "reqd": 0,
  "search_index": 0,
  "translatable": 1,
  "unique": 0,
  "width": null
 },
 {
  "_user_tags": ",csf-tz",
  "allow_on_submit": 0,
  "bold": 0,
  "collapsible": 0,
  "collapsible_depends_on": null,
  "columns": 0,
  "default": null,
  "depends_on": null,
  "description": null,
  "docstatus": 0,
  "doctype": "Custom Field",
  "dt": "Sales Invoice",
  "fetch_from": null,
  "fetch_if_empty": 0,
  "fieldname": "column_break_29",
  "fieldtype": "Column Break",
  "hidden": 0,
  "ignore_user_permissions": 0,
  "ignore_xss_filter": 0,
  "in_global_search": 0,
  "in_list_view": 0,
  "in_standard_filter": 0,
  "insert_after": "witholding_tax_certificate_number",
  "label": null,
  "length": 0,
  "modified": "2019-12-06 14:57:05.419003",
  "name": "Sales Invoice-column_break_29",
  "no_copy": 0,
  "options": null,
  "parent": null,
  "parentfield": null,
  "parenttype": null,
  "permlevel": 0,
  "precision": "",
  "print_hide": 0,
  "print_hide_if_no_value": 0,
  "print_width": null,
  "read_only": 0,
  "report_hide": 0,
  "reqd": 0,
  "search_index": 0,
  "translatable": 0,
  "unique": 0,
  "width": null
 },
 {
  "_user_tags": ",csf-tz",
  "allow_on_submit": 1,
  "bold": 0,
  "collapsible": 0,
  "collapsible_depends_on": null,
  "columns": 0,
  "default": null,
  "depends_on": null,
  "description": null,
  "docstatus": 0,
  "doctype": "Custom Field",
  "dt": "Sales Invoice",
  "fetch_from": null,
  "fetch_if_empty": 0,
  "fieldname": "efd_z_report",
  "fieldtype": "Link",
  "hidden": 0,
  "ignore_user_permissions": 0,
  "ignore_xss_filter": 0,
  "in_global_search": 0,
  "in_list_view": 0,
  "in_standard_filter": 0,
  "insert_after": "column_break_29",
  "label": "EFD Z Report",
  "length": 0,
  "modified": "2019-12-06 14:55:52.623267",
  "name": "Sales Invoice-efd_z_report",
  "no_copy": 0,
  "options": "EFD Z Report",
  "parent": null,
  "parentfield": null,
  "parenttype": null,
  "permlevel": 0,
  "precision": "",
  "print_hide": 0,
  "print_hide_if_no_value": 0,
  "print_width": null,
  "read_only": 0,
  "report_hide": 0,
  "reqd": 0,
  "search_index": 0,
  "translatable": 0,
  "unique": 0,
  "width": null
 },
 {
  "_user_tags": ",csf-tz",
  "allow_on_submit": 0,
  "bold": 0,
  "collapsible": 0,
  "collapsible_depends_on": null,
  "columns": 0,
  "default": null,
  "depends_on": null,
  "description": null,
  "docstatus": 0,
  "doctype": "Custom Field",
  "dt": "Journal Entry",
  "fetch_from": null,
  "fetch_if_empty": 0,
  "fieldname": "from_date",
  "fieldtype": "Date",
  "hidden": 0,
  "ignore_user_permissions": 0,
  "ignore_xss_filter": 0,
  "in_global_search": 0,
  "in_list_view": 0,
  "in_standard_filter": 0,
  "insert_after": "auto_repeat",
  "label": "From Date",
  "length": 0,
  "modified": "2019-12-06 10:09:21.867329",
  "name": "Journal Entry-from_date",
  "no_copy": 0,
  "options": null,
  "parent": null,
  "parentfield": null,
  "parenttype": null,
  "permlevel": 0,
  "precision": "",
  "print_hide": 0,
  "print_hide_if_no_value": 0,
  "print_width": null,
  "read_only": 0,
  "report_hide": 0,
  "reqd": 0,
  "search_index": 0,
  "translatable": 0,
  "unique": 0,
  "width": null
 },
 {
  "_user_tags": ",csf-tz",
  "allow_on_submit": 0,
  "bold": 0,
  "collapsible": 0,
  "collapsible_depends_on": null,
  "columns": 0,
  "default": null,
  "depends_on": null,
  "description": null,
  "docstatus": 0,
  "doctype": "Custom Field",
  "dt": "Journal Entry",
  "fetch_from": null,
  "fetch_if_empty": 0,
  "fieldname": "to_date",
  "fieldtype": "Date",
  "hidden": 0,
  "ignore_user_permissions": 0,
  "ignore_xss_filter": 0,
  "in_global_search": 0,
  "in_list_view": 0,
  "in_standard_filter": 0,
  "insert_after": "from_date",
  "label": "To Date",
  "length": 0,
  "modified": "2019-12-06 10:09:16.299619",
  "name": "Journal Entry-to_date",
  "no_copy": 0,
  "options": null,
  "parent": null,
  "parentfield": null,
  "parenttype": null,
  "permlevel": 0,
  "precision": "",
  "print_hide": 0,
  "print_hide_if_no_value": 0,
  "print_width": null,
  "read_only": 0,
  "report_hide": 0,
  "reqd": 0,
  "search_index": 0,
  "translatable": 0,
  "unique": 0,
  "width": null
 },
 {
  "_user_tags": ",csf-tz",
  "allow_on_submit": 0,
  "bold": 0,
  "collapsible": 0,
  "collapsible_depends_on": null,
  "columns": 0,
  "default": null,
  "depends_on": null,
  "description": null,
  "docstatus": 0,
  "doctype": "Custom Field",
  "dt": "Company",
  "fetch_from": null,
  "fetch_if_empty": 0,
  "fieldname": "vrn",
  "fieldtype": "Data",
  "hidden": 0,
  "ignore_user_permissions": 0,
  "ignore_xss_filter": 0,
  "in_global_search": 0,
  "in_list_view": 0,
  "in_standard_filter": 0,
  "insert_after": "website",
  "label": "VRN",
  "length": 0,
  "modified": "2019-12-06 09:53:02.608214",
  "name": "Company-vrn",
  "no_copy": 0,
  "options": null,
  "parent": null,
  "parentfield": null,
  "parenttype": null,
  "permlevel": 0,
  "precision": "",
  "print_hide": 0,
  "print_hide_if_no_value": 0,
  "print_width": null,
  "read_only": 0,
  "report_hide": 0,
  "reqd": 0,
  "search_index": 0,
  "translatable": 1,
  "unique": 0,
  "width": null
 },
 {
  "_user_tags": ",csf-tz",
  "allow_on_submit": 0,
  "bold": 0,
  "collapsible": 0,
  "collapsible_depends_on": null,
  "columns": 0,
  "default": null,
  "depends_on": null,
  "description": null,
  "docstatus": 0,
  "doctype": "Custom Field",
  "dt": "Company",
  "fetch_from": null,
  "fetch_if_empty": 0,
  "fieldname": "tin",
  "fieldtype": "Data",
  "hidden": 0,
  "ignore_user_permissions": 0,
  "ignore_xss_filter": 0,
  "in_global_search": 0,
  "in_list_view": 0,
  "in_standard_filter": 0,
  "insert_after": "vrn",
  "label": "TIN",
  "length": 0,
  "modified": "2019-12-06 09:53:14.165770",
  "name": "Company-tin",
  "no_copy": 0,
  "options": null,
  "parent": null,
  "parentfield": null,
  "parenttype": null,
  "permlevel": 0,
  "precision": "",
  "print_hide": 0,
  "print_hide_if_no_value": 0,
  "print_width": null,
  "read_only": 0,
  "report_hide": 0,
  "reqd": 0,
  "search_index": 0,
  "translatable": 1,
  "unique": 0,
  "width": null
 },
 {
  "_user_tags": ",csf-tz",
  "allow_on_submit": 0,
  "bold": 0,
  "collapsible": 0,
  "collapsible_depends_on": null,
  "columns": 0,
  "default": null,
  "depends_on": null,
  "description": null,
  "docstatus": 0,
  "doctype": "Custom Field",
  "dt": "Company",
  "fetch_from": null,
  "fetch_if_empty": 0,
  "fieldname": "section_break_12",
  "fieldtype": "Section Break",
  "hidden": 0,
  "ignore_user_permissions": 0,
  "ignore_xss_filter": 0,
  "in_global_search": 0,
  "in_list_view": 0,
  "in_standard_filter": 0,
  "insert_after": "company_description",
  "label": "",
  "length": 0,
  "modified": "2019-12-06 09:53:25.583891",
  "name": "Company-section_break_12",
  "no_copy": 0,
  "options": null,
  "parent": null,
  "parentfield": null,
  "parenttype": null,
  "permlevel": 0,
  "precision": "",
  "print_hide": 0,
  "print_hide_if_no_value": 0,
  "print_width": null,
  "read_only": 0,
  "report_hide": 0,
  "reqd": 0,
  "search_index": 0,
  "translatable": 0,
  "unique": 0,
  "width": null
 },
 {
  "_user_tags": ",csf-tz",
  "allow_on_submit": 0,
  "bold": 0,
  "collapsible": 0,
  "collapsible_depends_on": null,
  "columns": 0,
  "default": null,
  "depends_on": null,
  "description": null,
  "docstatus": 0,
  "doctype": "Custom Field",
  "dt": "Company",
  "fetch_from": null,
  "fetch_if_empty": 0,
  "fieldname": "company_bank_details",
  "fieldtype": "Text",
  "hidden": 0,
  "ignore_user_permissions": 0,
  "ignore_xss_filter": 0,
  "in_global_search": 0,
  "in_list_view": 0,
  "in_standard_filter": 0,
  "insert_after": "section_break_12",
  "label": "Company Bank Details",
  "length": 0,
  "modified": "2019-12-06 09:53:40.758701",
  "name": "Company-company_bank_details",
  "no_copy": 0,
  "options": null,
  "parent": null,
  "parentfield": null,
  "parenttype": null,
  "permlevel": 0,
  "precision": "",
  "print_hide": 0,
  "print_hide_if_no_value": 0,
  "print_width": null,
  "read_only": 0,
  "report_hide": 0,
  "reqd": 0,
  "search_index": 0,
  "translatable": 1,
  "unique": 0,
  "width": null
 },
 {
  "_user_tags": ",csf-tz",
  "allow_on_submit": 0,
  "bold": 0,
  "collapsible": 0,
  "collapsible_depends_on": null,
  "columns": 0,
  "default": null,
  "depends_on": null,
  "description": null,
  "docstatus": 0,
  "doctype": "Custom Field",
  "dt": "Company",
  "fetch_from": null,
  "fetch_if_empty": 0,
  "fieldname": "av_testtest",
  "fieldtype": "Data",
  "hidden": 0,
  "ignore_user_permissions": 0,
  "ignore_xss_filter": 0,
  "in_global_search": 0,
  "in_list_view": 0,
  "in_standard_filter": 0,
  "insert_after": "registration_details",
  "label": "av_testtest",
  "length": 0,
  "modified": "2019-12-06 09:53:54.426177",
  "name": "Company-av_testtest",
  "no_copy": 0,
  "options": null,
  "parent": null,
  "parentfield": null,
  "parenttype": null,
  "permlevel": 0,
  "precision": "",
  "print_hide": 0,
  "print_hide_if_no_value": 0,
  "print_width": null,
  "read_only": 0,
  "report_hide": 0,
  "reqd": 0,
  "search_index": 0,
  "translatable": 1,
  "unique": 0,
  "width": null
 }
]